6 Correction des exercices du chapitre 5 | Travaux Pratiques de Biométrie 3
…
library(tidyverse)
library(skimr)
loups <- read_csv("data/loups.csv")

Rows: 24 Columns: 2
── Column specification ────────────────────────────────────────────────────────
Delimiter: ","
dbl (2): inbreedCoef, nPups

ℹ Use `spec()` to retrieve the full column specification for this data.
ℹ Specify the column types or set `show_col_types = FALSE` to quiet this message.

loups

# A tibble: 24 × 2
   inbreedCoef nPups
         <dbl> <dbl>
 1        0        6
 2        0        6
 3        0.13     7
 4        0.13     5
 5        0.13     4
 6        0.19     8
 7        0.19     7
 8        0.19     4
 9        0.25     6
10        0.24     3
# … with 14 more rows
…
Comme toujours, on commence par importer et examiner les données brutes

hockey <- read_csv("data/hockey.csv")

Rows: 21 Columns: 2
── Column specification ────────────────────────────────────────────────────────
Delimiter: ","
dbl (2): FaceWidthHeightRatio, PenaltyMinutes

ℹ Use `spec()` to retrieve the full column specification for this data.
ℹ Specify the column types or set `show_col_types = FALSE` to quiet this message.

hockey

# A tibble: 21 × 2
   FaceWidthHeightRatio PenaltyMinutes
                  <dbl>          <dbl>
 1                 1.59           0.44
 2                 1.67           1.43
 3                 1.65           1.57
 4                 1.72           0.14
 5                 1.79           0.27
 6                 1.77           0.35
 7                 1.74           0.85
 8                 1.74           1.13
 9                 1.77           1.47
10                 1.78           1.51
# … with 11 more rows
…
