5 Séance 4 : corrélations et régressions | Travaux Pratiques de Biométrie 3
…
Une valeur positive indique qu’une augmentation de la première variable est associée à une augmentation de la seconde variable.

Une valeur négative indique qu’une augmentation de la première variable est associée à une diminution de la seconde variable.

Dans la suite de ce chapitre, nous allons voir comment calculer le coefficient de corrélation entre 2 variables numériques, et puisque nous travaillons avec des échantillons, ce calcul sera nécessairement entaché d’incertitude. Tout comme la moyenne ou la variance d’un échantillon, la corrélation est un paramètre des populations dont nous ne pourrons qu’estimer la valeur. Toute estimation de corrélation devra donc être encadrée par un intervalle d’incertitude, généralement, il s’agit de l’intervalle de confiance à 95% de la corrélation. Enfin, outre l’estimation de la valeur de la corrélation et de son incertitude, nous pourrons aussi faire des tests d’hypothèses au sujet des corrélations que nous estimerons.

5.2.2 Exploration préalable des données

5.2.2.1 Importation et examen visuel

Les adultes qui infligent des mauvais traitements à leurs enfants ont souvent été maltraités dans leur enfance. Une telle relation exsite-t-elle également chez d’autres espèces animales, chez qui cette relation pourrait être étudiée plus facilement ? Müller et al. (2011) ont étudié cette possibilité chez le fou de Grant (Sula granti), un oiseau marin colonial vivant entre autres aux Galápagos. Les jeunes laissés au nid sans attention parentale reçoivent fréquemment la visite d’autres oiseaux, qui se comportent souvent de manière agressive à leur encontre. Les chercheurs ont compté le nombre de ces visites dans le nid de 24 poussins dotés d’une bague d’identification individuelle. Ces 24 individus ont ensuite été suivis à l’âge adulte, lorsqu’ils sont à leur tour devenus parents. Les données récoltées par les chercheurs figurent dans le fichier birds.csv. Importez ces données dans R dans un objet noté birds.

birds

# A tibble: 24 × 2
   nVisitsNestling futureBehavior
             <dbl>          <dbl>
 1               1          -0.8 
 2               7          -0.92
 3              15          -0.8 
 4               4          -0.46
 5              11          -0.47
 6              14          -0.46
 7              23          -0.23
 8              14          -0.16
 9               9          -0.23
10               5          -0.23
# … with 14 more rows

La première colonne de ce tableau indique, pour chaque individu suivi, le nombre de visites reçues au nid de la part d’adultes agressifs lorsqu’ils étaient poussins. La seconde colonne indique, pour ces mêmes individus devenus adultes, le nombre de visites agressives effectuées à des nids d’autres poussins. Ce nombre n’est pas dans la même unité que la première variable car il a été corrigé par d’autres variables d’intérêt pour les chercheurs.

Il manque à ce tableau une variable indiquant le code des individus. Elle n’est pas indispensable, mais la rajouter est une bonne habitude à prendre pour toujours travailler avec des “données rangées” :

birds <- birds %>% 
  mutate(ID = factor(1:24))
birds

# A tibble: 24 × 3
   nVisitsNestling futureBehavior ID   
             <dbl>          <dbl> <fct>
 1               1          -0.8  1    
 2               7          -0.92 2    
 3              15          -0.8  3    
 4               4          -0.46 4    
 5              11          -0.47 5    
 6              14          -0.46 6    
 7              23          -0.23 7    
 8              14          -0.16 8    
 9               9          -0.23 9    
10               5          -0.23 10   
# … with 14 more rows
…
plant <- read_csv("data/plantbiomass.csv")

Rows: 161 Columns: 2

── Column specification ────────────────────────────────────────────────────────
Delimiter: ","
dbl (2): nSpecies, biomassStability

ℹ Use `spec()` to retrieve the full column specification for this data.
ℹ Specify the column types or set `show_col_types = FALSE` to quiet this message.

plant

# A tibble: 161 × 2
   nSpecies biomassStability
      <dbl>            <dbl>
 1        1             7.47
 2        1             6.74
 3        1             6.61
 4        1             6.4 
 5        1             5.67
 6        1             5.26
 7        1             4.8 
 8        1             4.4 
 9        1             4.4 
10        1             4.26
# … with 151 more rows
…
Cela n’est pas du tout problématique : comme pour l’ANOVA, les conditions d’application porteront sur les résidus de la régression, pas sur les variables elles-mêmes.

Afin de limiter la sur-dispersion de la variable expliquée, notamment pour la catégorie 16 plantes par parcelle, nous allons transformer l’indice de stabilité en logarithme (attention, la fonction log() permet de calculer des logarithmes népériens ou logarithmes naturels) :

plant <- plant %>% 
  mutate(log_biomass = log(biomassStability))
plant

# A tibble: 161 × 3
   nSpecies biomassStability log_biomass
      <dbl>            <dbl>       <dbl>
 1        1             7.47        2.01
 2        1             6.74        1.91
 3        1             6.61        1.89
 4        1             6.4         1.86
 5        1             5.67        1.74
 6        1             5.26        1.66
 7        1             4.8         1.57
 8        1             4.4         1.48
 9        1             4.4         1.48
10        1             4.26        1.45
# … with 151 more rows
…
