5 Séance 3 : corrélations et régressions | Travaux Pratiques de Biométrie 3
…
5.2.2 Exploration préalable des données

5.2.2.1 Importation et examen visuel

Les adultes qui infligent des mauvais traitements à leurs enfants ont souvent été maltraités dans leur enfance. Une telle relation exsite-t-elle également chez d’autres espèces animales, chez qui cette relation pourrait-être étudiée plus facilement ? Müller et al. (2011) ont étudié cette possibilité chez le Fou de Grant (Sula granti), un oiseau marin colonial vivant entre autres aux Galápagos. Les jeunes laissés au nid sans attention parentale reçoivent fréquemment la visite d’autres oiseaux, qui se comportent souvent de manière agressive à leur encontre. Les chercheurs ont compté le nombre de ces visites dans le nid de 24 poussins dotés d’une bague d’identification individuelle. Ces 24 individus ont ensuite été suivis à l’âge adulte, lorsqu’ils sont à leur tour devenus parents. Les données récoltées par les chercheurs figurent dans le fichier Birds.csv. Importez ces données dans R dans un objet noté Birds.

Parsed with column specification:
cols(
  nVisitsNestling = col_double(),
  futureBehavior = col_double()
)

Birds

# A tibble: 24 x 2
   nVisitsNestling futureBehavior
             <dbl>          <dbl>
 1               1          -0.8 
 2               7          -0.92
 3              15          -0.8 
 4               4          -0.46
 5              11          -0.47
 6              14          -0.46
 7              23          -0.23
 8              14          -0.16
 9               9          -0.23
10               5          -0.23
# … with 14 more rows

La première colonne de ce tableau indique, pour chaque individu suivi, le nombre de visites reçues au nid de la part d’adultes agressifs. La seconde colonne indique, pour ces même individus, le nombre de visites agressives effectuées à des nids d’autres poussins. Ce nombre n’est pas dans la même unité que la première variable puisqu’il a été corrigé par d’autres variables d’intérêt pour les chercheurs.

Il manque à ce tableau une variable indiquant le code des individus. Elle n’est pas indispensable, mais la rajouter est une bonne habitude à prendre pour toujours travailler avec des “données rangées” :

Birds <- Birds %>% 
  mutate(ID = factor(1:24))
Birds

# A tibble: 24 x 3
   nVisitsNestling futureBehavior ID   
             <dbl>          <dbl> <fct>
 1               1          -0.8  1    
 2               7          -0.92 2    
 3              15          -0.8  3    
 4               4          -0.46 4    
 5              11          -0.47 5    
 6              14          -0.46 6    
 7              23          -0.23 7    
 8              14          -0.16 8    
 9               9          -0.23 9    
10               5          -0.23 10   
# … with 14 more rows
…
