3 Séances 1 et 2 : statistiques descriptives et tests d’hypothèses | Travaux Pratiques de Biométrie 3
…
3.2 Comparaison de la moyenne d’une population à une valeur théorique

3.2.1 Exploration préalable des données

Avant de se lancer dans les tests d’hypothèses, il est toujours indispensable d’examiner les données dont on dispose à l’aide, d’une part de statistiques descriptives numériques, et d’autres part, de graphiques exploratoires. Nous allons voir dans cette section quels indices statistiques il peut être utile de calculer et quelles représentations graphiques il peut être utile de réaliser afin de pouvoir se lancer dans des tests d’hypothèses sans risquer de grossières erreurs.

3.2.1.1 Importation et examen visuel

Commencez par importer les données contenues dans le fichier Temperature.csv. Pour cela, utilisez l’assistant d’importation de RStudio. Si vous ne savez plus comment faire, consultez la section 5.3 du livre en ligne de Biométrie 2.

Vous stockerez les données dans un objet que vous nommerez Temperature. Après l’importation, taper son nom dans la console de RStudio doit produire le résultat suivant :

Temperature

# A tibble: 25 x 2
   individual temperature
        <dbl>       <dbl>
 1          1        98.4
 2          2        98.6
 3          3        97.8
 4          4        98.8
 5          5        97.9
 6          6        99  
 7          7        98.2
 8          8        98.8
 9          9        98.8
10         10        99  
# … with 15 more rows
…
la première colonne, intitulé inidividual, n’est pas véritablement une variable. Cette colonne ne contient qu’un identifiant qui est en fait identique au numéro de ligne. Nous allons donc supprimer cette colonne

les températures sont exprimées en degrés Fahrenheit, ce qui rend leur lecture difficile pour nous qui sommes habitués à utiliser le système métrique et les degrés Celsius. Nous allons donc convertir les températures en degrés Celsius grâce à la formule suivante :

\[ºC = \frac{ºF - 32}{1.8}\]

Temp_clean <- Temperature %>% 
  select(-individual) %>%      # Suppression de la première colonne
  mutate(                      # Transformation des températures en Celsius
    temperature = (temperature - 32) / 1.8
    )

Temp_clean

# A tibble: 25 x 1
   temperature
         <dbl>
 1        36.9
 2        37.0
 3        36.6
 4        37.1
 5        36.6
 6        37.2
 7        36.8
 8        37.1
 9        37.1
10        37.2
# … with 15 more rows
…
Il nous faut maintenant transformer ce tableau en format “long” pour les représentations graphiques :

Testo_long <- Testo_large %>% 
  gather(key = Traitement, 
         value = DO, 
         Before, After, 
         factor_key = TRUE)

Testo_long

# A tibble: 26 x 3
   ID    Traitement    DO
   <fct> <fct>      <dbl>
 1 1     Before      4.65
 2 2     Before      3.91
 3 3     Before      4.91
 4 4     Before      4.5 
 5 5     Before      4.8 
 6 6     Before      4.88
 7 7     Before      4.88
 8 8     Before      4.78
 9 9     Before      4.98
10 10    Before      4.87
# … with 16 more rows
…
3.4 Comparaison de la moyenne de 2 populations : échantillons indépendants

On s’intéresse maintenant aux méthodes permettant de comparer la moyenne de deux groupes ou de deux traitements dans la cas d’échantillons indépendants. Dans ce type de design expérimentaux, les les deux traitements sont appliqués à des échantillons indépendants issus de 2 populations.

3.4.1 Exploration préalable des données

Chez le lézard cornu Phrynosoma mcallii, une frange de piquants entoure la tête. Une équipe d’herpétologues (Young et al., 2004) a étudié la question suivante : des piquants plus longs autour de la tête protègent-ils le lézard cornu de son prédateur naturel, la pie grièche migratrice Lanius ludovicianus ? Ce prédateur a en effet une particularité : il accroche ses proies mortes à des barbelés ou des branches pour les consommer plus tard. Les chercheurs ont donc mesuré la longueur des cornes de 30 lézards retrouvés morts et accrochés dans des arbres par la pie grièche migratrice. Et en parallèle, ils ont mesuré les cornes de 154 individus vivants et en bonne santé choisis au hasard dans la population.

3.4.1.1 Importation et examen visuel

Les données de cette étude sont stockées dans le fichier HornedLizards.csv. Importez ces données dans un objet nommé Lizard et examinez le tableau obtenu.

Lizard

# A tibble: 185 x 2
   squamosalHornLength Survival
                 <dbl> <chr>   
 1                25.2 living  
 2                26.9 living  
 3                26.6 living  
 4                25.6 living  
 5                25.7 living  
 6                25.9 living  
 7                27.3 living  
 8                25.1 living  
 9                30.3 living  
10                25.6 living  
# … with 175 more rows
…
le nom de la première colonne (squamosalHornLength) est bien trop long

pour un animal vivant, la mesure de longueur des cornes est manquante. Il nous faut donc retirer cet individu.

Nous pouvons facilement réaliser les 3 modifications d’un coup :

Lizard <- Lizard %>% 
  mutate(Survival = factor(Survival)) %>% 
  rename(Horn_len = squamosalHornLength) %>% 
  filter(!is.na(Horn_len))

Lizard

# A tibble: 184 x 2
   Horn_len Survival
      <dbl> <fct>   
 1     25.2 living  
 2     26.9 living  
 3     26.6 living  
 4     25.6 living  
 5     25.7 living  
 6     25.9 living  
 7     27.3 living  
 8     25.1 living  
 9     30.3 living  
10     25.6 living  
# … with 174 more rows
…
