4 Séance 3 : comparer la moyenne de plus de 2 groupes | Travaux Pratiques de Biométrie 3
…
Soit à 3 heures de lumière appliquée exclusivement derrière leurs genoux (groupe knee).

Soit à 3 heures de lumière appliquée exclusivement à leurs yeux (groupe eyes).

Soit à 3 heures d’obscurité totale (groupe control).

Le décalage de phase du cycle de production de mélatonine était mesuré 48h plus tard. Des chiffres négatifs indiquent un retard de production de mélatonine. C’est l’effet théorique attendu du traitement lumineux administré. Un décalage de phase positif indique une production de mélatonine plus précoce. Une absence de changement se traduit par un décalage de phase de 0.

4.2.1.1 Importation et examen visuel

Les données brutes de cette étude sont fournies dans le fichier Light.csv. Importez ces données dans RStudio et examinez les données brutes grâce à la fonction View().

Light

# A tibble: 22 x 2
   treatment shift
   <chr>     <dbl>
 1 control    0.53
 2 control    0.36
 3 control    0.2 
 4 control   -0.37
 5 control   -0.6 
 6 control   -0.64
 7 control   -0.68
 8 control   -1.27
 9 knee       0.73
10 knee       0.31
# … with 12 more rows
…
Comme toujours, les niveaux du facteur sont automatiquement classés par ordre alphabétique :

levels(Light$treatment)

[1] "control" "eyes"    "knee"   

Pour les statistiques descriptives et les graphiques qui viendront après, nous souhaitons indiquer l’ordre suivant : control, puis knee, puis eyes :

Light <- Light %>% 
  mutate(treatment = fct_relevel(treatment, "control", "knee", "eyes"))

Light

# A tibble: 22 x 2
   treatment shift
   <fct>     <dbl>
 1 control    0.53
 2 control    0.36
 3 control    0.2 
 4 control   -0.37
 5 control   -0.6 
 6 control   -0.64
 7 control   -0.68
 8 control   -1.27
 9 knee       0.73
10 knee       0.31
# … with 12 more rows
…
